%!PS-Adobe-3.0 EPSF-3.0
%%Title: Figures/fig7.eps
%%Creator: matplotlib version 1.1.0, http://matplotlib.sourceforge.net/
%%CreationDate: Thu Aug 16 15:22:10 2012
%%Orientation: portrait
%%BoundingBox: 90 252 522 540
%%EndComments
%%BeginProlog
/mpldict 12 dict def
mpldict begin
/m { moveto } bind def
/l { lineto } bind def
/r { rlineto } bind def
/c { curveto } bind def
/cl { closepath } bind def
/box {
m
1 index 0 r
0 exch r
neg 0 r
cl
} bind def
/clipbox {
box
clip
newpath
} bind def
%!PS-Adobe-3.0 Resource-Font
%%Title: Bitstream Vera Sans Bold
%%Copyright: Copyright (c) 2003 by Bitstream, Inc. All Rights Reserved.
%%Creator: Converted from TrueType to type 3 by PPR
25 dict begin
/_d{bind def}bind def
/_m{moveto}_d
/_l{lineto}_d
/_cl{closepath eofill}_d
/_c{curveto}_d
/_sc{7 -1 roll{setcachedevice}{pop pop pop pop pop pop}ifelse}_d
/_e{exec}_d
/FontName /BitstreamVeraSans-Bold def
/PaintType 0 def
/FontMatrix[.001 0 0 .001 0 0]def
/FontBBox[-199 -236 1417 928]def
/FontType 3 def
/Encoding [ /period /zero /one /two /four /six /eight ] def
/FontInfo 10 dict dup begin
/FamilyName (Bitstream Vera Sans) def
/FullName (Bitstream Vera Sans Bold) def
/Notice (Copyright (c) 2003 by Bitstream, Inc. All Rights Reserved. Bitstream Vera is a trademark of Bitstream, Inc.) def
/Weight (Bold) def
/Version (Release 1.10) def
/ItalicAngle 0.0 def
/isFixedPitch false def
/UnderlinePosition -227 def
/UnderlineThickness 258 def
end readonly def
/CharStrings 7 dict dup begin
/period{380 0 102 0 278 189 _sc
102 189 _m
278 189 _l
278 0 _l
102 0 _l
102 189 _l
_cl}_d
/zero{696 0 48 -13 648 742 _sc
460 365 _m
460 456 451 520 434 558 _c
417 595 388 614 348 614 _c
308 614 279 595 262 558 _c
244 520 236 456 236 365 _c
236 273 244 208 262 170 _c
279 132 308 114 348 114 _c
388 114 416 132 434 170 _c
451 208 460 273 460 365 _c
648 364 _m
648 243 622 150 570 85 _c
518 19 444 -13 348 -13 _c
252 -13 178 19 126 85 _c
74 150 48 243 48 364 _c
48 484 74 577 126 643 _c
178 709 252 742 348 742 _c
444 742 518 709 570 643 _c
622 577 648 484 648 364 _c
_cl}_d
/one{696 0 113 0 627 729 _sc
117 130 _m
283 130 _l
283 601 _l
113 566 _l
113 694 _l
282 729 _l
461 729 _l
461 130 _l
627 130 _l
627 0 _l
117 0 _l
117 130 _l
_cl}_d
/two{696 0 79 0 609 742 _sc
288 138 _m
609 138 _l
609 0 _l
79 0 _l
79 138 _l
345 373 _l
369 394 386 415 398 436 _c
409 456 415 478 415 500 _c
415 534 403 561 380 582 _c
357 603 327 614 289 614 _c
259 614 227 607 193 595 _c
158 582 121 563 81 539 _c
81 699 _l
123 713 165 723 207 731 _c
248 738 288 742 328 742 _c
415 742 483 722 531 684 _c
579 646 604 592 604 524 _c
604 484 593 446 573 412 _c
552 378 509 332 444 275 _c
288 138 _l
_cl}_d
/four{696 0 45 0 650 729 _sc
368 574 _m
162 269 _l
368 269 _l
368 574 _l
337 729 _m
546 729 _l
546 269 _l
650 269 _l
650 133 _l
546 133 _l
546 0 _l
368 0 _l
368 133 _l
45 133 _l
45 294 _l
337 729 _l
_cl}_d
/six{{696 0 62 -13 642 741 _sc
362 360 _m
329 360 304 349 288 328 _c
271 306 263 274 263 232 _c
263 189 271 157 288 136 _c
304 114 329 104 362 104 _c
395 104 420 114 436 136 _c
452 157 461 189 461 232 _c
461 274 452 306 436 328 _c
420 349 395 360 362 360 _c
594 710 _m
594 575 _l
563 589 534 600 507 607 _c
479 614 453 618 427 618 _c
371 618 327 602 296 571 _c
264 540 246 494 241 433 _c
262 449 285 461 311 469 _c
336 477 363 481 393 481 _c
467 481 527 459 573 415 _c
619 371 642 314 642 244 _c
642 166 616 103 565 57 _c
514 10 446 -13 360 -13 _c
265 -13 192 18 140 82 _c
88 146 62 236 62 354 _c
62 474 92 569 153 638 _c
213 706 297 741 403 741 _c
}_e{436 741 468 738 500 733 _c
532 728 563 720 594 710 _c
_cl}_e}_d
/eight{{696 0 61 -13 634 742 _sc
348 326 _m
312 326 285 316 267 297 _c
248 278 239 251 239 215 _c
239 179 248 151 267 132 _c
285 113 312 104 348 104 _c
382 104 409 113 428 132 _c
446 151 456 179 456 215 _c
456 251 446 278 428 297 _c
409 316 382 326 348 326 _c
211 388 _m
167 401 133 421 111 449 _c
88 477 77 511 77 553 _c
77 615 100 662 146 694 _c
192 726 259 742 348 742 _c
436 742 503 726 549 694 _c
595 662 618 615 618 553 _c
618 511 606 477 584 449 _c
561 421 528 401 484 388 _c
533 374 570 352 596 321 _c
621 290 634 251 634 205 _c
634 133 610 78 562 42 _c
514 5 442 -13 348 -13 _c
253 -13 181 5 133 42 _c
85 78 61 133 61 205 _c
61 251 73 290 99 321 _c
124 352 161 374 211 388 _c
}_e{255 534 _m
255 505 263 483 279 467 _c
295 451 318 444 348 444 _c
377 444 400 451 416 467 _c
432 483 440 505 440 534 _c
440 563 432 585 416 601 _c
400 616 377 624 348 624 _c
318 624 295 616 279 600 _c
263 584 255 562 255 534 _c
_cl}_e}_d
end readonly def

/BuildGlyph
 {exch begin
 CharStrings exch
 2 copy known not{pop /.notdef}if
 true 3 1 roll get exec
 end}_d

/BuildChar {
 1 index /Encoding get exch get
 1 index /BuildGlyph get exec
}_d

FontName currentdict end definefont pop
%!PS-Adobe-3.0 Resource-Font
%%Title: cmmi10
%%Copyright: Copyright (C) 1994, Basil K. Malyshev. All Rights Reserved.012BaKoMa Fonts Collection, Level-B.
%%Creator: Converted from TrueType to type 3 by PPR
25 dict begin
/_d{bind def}bind def
/_m{moveto}_d
/_l{lineto}_d
/_cl{closepath eofill}_d
/_c{curveto}_d
/_sc{7 -1 roll{setcachedevice}{pop pop pop pop pop pop}ifelse}_d
/_e{exec}_d
/FontName /Cmmi10 def
/PaintType 0 def
/FontMatrix[.001 0 0 .001 0 0]def
/FontBBox[-34 -250 1048 750]def
/FontType 3 def
/Encoding [ /eta /k /r ] def
/FontInfo 10 dict dup begin
/FamilyName (cmmi10) def
/FullName (cmmi10) def
/Notice (Copyright (C) 1994, Basil K. Malyshev. All Rights Reserved.012BaKoMa Fonts Collection, Level-B. ) def
/Weight (Regular) def
/Version (1.1/12-Nov-94) def
/ItalicAngle 0.0 def
/isFixedPitch false def
/UnderlinePosition -133 def
/UnderlineThickness 20 def
end readonly def
/CharStrings 3 dict dup begin
/eta{{496 0 27 -215 497 442 _sc
107 -10 _m
99 -10 92 -7 86 -3 _c
80 1 77 8 77 17 _c
77 21 77 24 78 26 _c
153 324 _l
157 342 160 359 160 373 _c
160 401 150 416 131 416 _c
110 416 94 403 84 378 _c
74 353 64 322 55 284 _c
55 282 54 280 52 279 _c
50 278 48 278 47 278 _c
35 278 _l
33 278 31 279 29 281 _c
27 283 27 286 27 288 _c
34 317 41 342 48 362 _c
54 382 65 400 79 417 _c
93 433 110 442 132 442 _c
156 442 178 434 198 418 _c
217 402 227 382 227 358 _c
246 384 269 404 295 419 _c
321 434 350 442 382 442 _c
416 442 444 432 465 414 _c
486 395 497 368 497 334 _c
}_e{497 314 494 295 490 279 _c
374 -183 _l
372 -192 367 -200 359 -206 _c
351 -212 343 -215 333 -215 _c
325 -215 318 -212 312 -207 _c
306 -202 303 -195 303 -187 _c
303 -183 303 -180 304 -179 _c
419 281 _l
425 308 429 331 429 349 _c
429 367 425 383 417 396 _c
409 409 397 416 380 416 _c
314 416 260 375 217 295 _c
149 22 _l
147 12 142 5 134 -1 _c
126 -7 117 -10 107 -10 _c
_cl}_e}_d
/k{{520 0 53 -10 507 694 _sc
53 18 _m
53 22 53 25 54 27 _c
199 605 _l
201 616 203 625 204 632 _c
204 642 182 648 139 648 _c
132 648 129 652 129 661 _c
129 663 129 666 131 670 _c
132 674 133 677 135 679 _c
137 681 139 683 143 683 _c
278 694 _l
281 694 _l
281 693 282 692 284 691 _c
286 689 288 689 288 689 _c
289 685 290 683 290 681 _c
185 263 _l
209 273 239 297 276 335 _c
312 373 341 400 362 417 _c
382 433 408 442 440 442 _c
458 442 474 435 487 423 _c
500 410 507 394 507 376 _c
507 364 504 353 499 343 _c
494 333 487 325 479 319 _c
470 313 460 310 448 310 _c
437 310 428 313 421 320 _c
413 326 410 335 410 346 _c
}_e{410 362 415 375 427 386 _c
438 397 452 403 468 403 _c
461 411 451 416 438 416 _c
418 416 398 410 380 399 _c
362 387 342 371 321 350 _c
299 328 280 309 262 291 _c
244 273 228 260 214 251 _c
253 246 287 236 316 220 _c
345 204 360 179 360 146 _c
360 139 358 130 356 120 _c
350 95 347 75 347 60 _c
347 30 357 15 378 15 _c
402 15 420 28 433 54 _c
445 80 456 111 464 147 _c
465 151 468 153 472 153 _c
484 153 _l
486 153 488 152 490 150 _c
492 148 493 146 493 144 _c
493 143 492 142 492 141 _c
467 40 428 -10 376 -10 _c
357 -10 340 -6 326 2 _c
311 10 300 22 292 38 _c
284 53 281 70 281 89 _c
}_e{281 99 282 110 285 122 _c
287 130 288 137 288 144 _c
288 170 276 189 254 203 _c
231 216 205 224 176 227 _c
125 23 _l
122 13 117 5 110 -1 _c
102 -7 94 -10 84 -10 _c
75 -10 68 -7 62 -2 _c
56 3 53 10 53 18 _c
_cl}_e}_d
/r{{451 0 27 -10 434 442 _sc
77 17 _m
77 21 77 24 78 26 _c
153 324 _l
157 342 160 359 160 373 _c
160 401 150 416 131 416 _c
110 416 94 403 84 378 _c
74 353 64 322 55 284 _c
55 282 54 280 52 279 _c
50 278 48 278 47 278 _c
35 278 _l
33 278 31 279 29 281 _c
27 283 27 286 27 288 _c
34 317 41 342 48 362 _c
54 382 65 400 79 417 _c
93 433 110 442 132 442 _c
155 442 175 435 193 422 _c
210 408 221 391 225 369 _c
241 391 260 408 282 422 _c
304 435 328 442 354 442 _c
375 442 394 435 410 423 _c
426 411 434 394 434 373 _c
434 356 428 341 418 329 _c
407 316 393 310 376 310 _c
}_e{365 310 356 313 349 320 _c
341 326 338 335 338 346 _c
338 360 343 373 354 385 _c
364 397 377 403 391 403 _c
380 411 367 416 352 416 _c
323 416 298 405 277 385 _c
256 365 237 339 220 308 _c
149 22 _l
147 12 142 5 134 -1 _c
126 -7 117 -10 107 -10 _c
99 -10 92 -7 86 -3 _c
80 1 77 8 77 17 _c
_cl}_e}_d
end readonly def

/BuildGlyph
 {exch begin
 CharStrings exch
 2 copy known not{pop /.notdef}if
 true 3 1 roll get exec
 end}_d

/BuildChar {
 1 index /Encoding get exch get
 1 index /BuildGlyph get exec
}_d

FontName currentdict end definefont pop
%!PS-Adobe-3.0 Resource-Font
%%Title: cmex10
%%Copyright: Copyright (C) 1994, Basil K. Malyshev. All Rights Reserved.012BaKoMa Fonts Collection, Level-B.
%%Creator: Converted from TrueType to type 3 by PPR
25 dict begin
/_d{bind def}bind def
/_m{moveto}_d
/_l{lineto}_d
/_cl{closepath eofill}_d
/_c{curveto}_d
/_sc{7 -1 roll{setcachedevice}{pop pop pop pop pop pop}ifelse}_d
/_e{exec}_d
/FontName /Cmex10 def
/PaintType 0 def
/FontMatrix[.001 0 0 .001 0 0]def
/FontBBox[-24 -2960 1454 772]def
/FontType 3 def
/Encoding [ /angbracketrightbig /angbracketleftbig ] def
/FontInfo 10 dict dup begin
/FamilyName (cmex10) def
/FullName (cmex10) def
/Notice (Copyright (C) 1994, Basil K. Malyshev. All Rights Reserved.012BaKoMa Fonts Collection, Level-B. ) def
/Weight (Regular) def
/Version (1.1/12-Nov-94) def
/ItalicAngle 0.0 def
/isFixedPitch false def
/UnderlinePosition -133 def
/UnderlineThickness 20 def
end readonly def
/CharStrings 2 dict dup begin
/angbracketrightbig{472 0 78 -1159 373 40 _sc
78 -1139 _m
78 -1135 78 -1133 80 -1132 _c
331 -559 _l
80 13 _l
78 14 78 16 78 20 _c
78 24 80 29 84 33 _c
88 37 92 40 98 40 _c
106 40 112 36 117 28 _c
372 -552 _l
372 -553 373 -555 373 -559 _c
373 -562 372 -565 372 -567 _c
117 -1147 _l
111 -1155 105 -1159 98 -1159 _c
92 -1159 88 -1156 84 -1152 _c
80 -1148 78 -1143 78 -1139 _c
_cl}_d
/angbracketleftbig{472 0 98 -1159 393 40 _sc
355 -1147 _m
100 -567 _l
98 -565 98 -562 98 -559 _c
98 -555 98 -553 100 -552 _c
355 28 _l
358 36 364 40 373 40 _c
377 40 382 37 386 33 _c
390 29 393 24 393 20 _c
393 16 392 14 392 13 _c
140 -559 _l
392 -1132 _l
392 -1133 393 -1135 393 -1139 _c
393 -1143 390 -1148 386 -1152 _c
382 -1156 377 -1159 373 -1159 _c
364 -1159 358 -1155 355 -1147 _c
_cl}_d
end readonly def

/BuildGlyph
 {exch begin
 CharStrings exch
 2 copy known not{pop /.notdef}if
 true 3 1 roll get exec
 end}_d

/BuildChar {
 1 index /Encoding get exch get
 1 index /BuildGlyph get exec
}_d

FontName currentdict end definefont pop
%!PS-Adobe-3.0 Resource-Font
%%Title: Bitstream Vera Sans
%%Copyright: Copyright (c) 2003 by Bitstream, Inc. All Rights Reserved.
%%Creator: Converted from TrueType to type 3 by PPR
25 dict begin
/_d{bind def}bind def
/_m{moveto}_d
/_l{lineto}_d
/_cl{closepath eofill}_d
/_c{curveto}_d
/_sc{7 -1 roll{setcachedevice}{pop pop pop pop pop pop}ifelse}_d
/_e{exec}_d
/FontName /BitstreamVeraSans-Roman def
/PaintType 0 def
/FontMatrix[.001 0 0 .001 0 0]def
/FontBBox[-183 -236 1287 928]def
/FontType 3 def
/Encoding [ /space /slash /zero /one /five /equal /F /S /V /a /c /e /f /g /i /l /m /n /o /p /r /s /t /y ] def
/FontInfo 10 dict dup begin
/FamilyName (Bitstream Vera Sans) def
/FullName (Bitstream Vera Sans) def
/Notice (Copyright (c) 2003 by Bitstream, Inc. All Rights Reserved. Bitstream Vera is a trademark of Bitstream, Inc.) def
/Weight (Roman) def
/Version (Release 1.10) def
/ItalicAngle 0.0 def
/isFixedPitch false def
/UnderlinePosition -213 def
/UnderlineThickness 143 def
end readonly def
/CharStrings 24 dict dup begin
/space{318 0 0 0 0 0 _sc
}_d
/slash{337 0 0 -92 337 729 _sc
254 729 _m
337 729 _l
83 -92 _l
0 -92 _l
254 729 _l
_cl}_d
/zero{636 0 66 -13 570 742 _sc
318 664 _m
267 664 229 639 203 589 _c
177 539 165 464 165 364 _c
165 264 177 189 203 139 _c
229 89 267 64 318 64 _c
369 64 407 89 433 139 _c
458 189 471 264 471 364 _c
471 464 458 539 433 589 _c
407 639 369 664 318 664 _c
318 742 _m
399 742 461 709 505 645 _c
548 580 570 486 570 364 _c
570 241 548 147 505 83 _c
461 19 399 -13 318 -13 _c
236 -13 173 19 130 83 _c
87 147 66 241 66 364 _c
66 486 87 580 130 645 _c
173 709 236 742 318 742 _c
_cl}_d
/one{636 0 110 0 544 729 _sc
124 83 _m
285 83 _l
285 639 _l
110 604 _l
110 694 _l
284 729 _l
383 729 _l
383 83 _l
544 83 _l
544 0 _l
124 0 _l
124 83 _l
_cl}_d
/five{{636 0 77 -13 549 729 _sc
108 729 _m
495 729 _l
495 646 _l
198 646 _l
198 467 _l
212 472 227 476 241 478 _c
255 480 270 482 284 482 _c
365 482 429 459 477 415 _c
525 370 549 310 549 234 _c
549 155 524 94 475 51 _c
426 8 357 -13 269 -13 _c
238 -13 207 -10 175 -6 _c
143 -1 111 6 77 17 _c
77 116 _l
106 100 136 88 168 80 _c
199 72 232 69 267 69 _c
323 69 368 83 401 113 _c
433 143 450 183 450 234 _c
450 284 433 324 401 354 _c
368 384 323 399 267 399 _c
241 399 214 396 188 390 _c
162 384 135 375 108 363 _c
108 729 _l
_cl}_e}_d
/equal{838 0 106 172 732 454 _sc
106 454 _m
732 454 _l
732 372 _l
106 372 _l
106 454 _l
106 255 _m
732 255 _l
732 172 _l
106 172 _l
106 255 _l
_cl}_d
/F{575 0 98 0 517 729 _sc
98 729 _m
517 729 _l
517 646 _l
197 646 _l
197 431 _l
486 431 _l
486 348 _l
197 348 _l
197 0 _l
98 0 _l
98 729 _l
_cl}_d
/S{{635 0 66 -13 579 742 _sc
535 705 _m
535 609 _l
497 627 462 640 429 649 _c
395 657 363 662 333 662 _c
279 662 237 651 208 631 _c
179 610 165 580 165 542 _c
165 510 174 485 194 469 _c
213 452 250 439 304 429 _c
364 417 _l
437 403 491 378 526 343 _c
561 307 579 260 579 201 _c
579 130 555 77 508 41 _c
460 5 391 -13 300 -13 _c
265 -13 228 -9 189 -2 _c
150 5 110 16 69 32 _c
69 134 _l
109 111 148 94 186 83 _c
224 71 262 66 300 66 _c
356 66 399 77 430 99 _c
460 121 476 152 476 194 _c
476 230 465 258 443 278 _c
421 298 385 313 335 323 _c
275 335 _l
201 349 148 372 115 404 _c
82 435 66 478 66 534 _c
66 598 88 649 134 686 _c
179 723 242 742 322 742 _c
}_e{356 742 390 739 426 733 _c
461 727 497 717 535 705 _c
_cl}_e}_d
/V{684 0 8 0 676 729 _sc
286 0 _m
8 729 _l
111 729 _l
342 115 _l
573 729 _l
676 729 _l
398 0 _l
286 0 _l
_cl}_d
/a{{613 0 60 -13 522 560 _sc
343 275 _m
270 275 220 266 192 250 _c
164 233 150 205 150 165 _c
150 133 160 107 181 89 _c
202 70 231 61 267 61 _c
317 61 357 78 387 114 _c
417 149 432 196 432 255 _c
432 275 _l
343 275 _l
522 312 _m
522 0 _l
432 0 _l
432 83 _l
411 49 385 25 355 10 _c
325 -5 287 -13 243 -13 _c
187 -13 142 2 109 33 _c
76 64 60 106 60 159 _c
60 220 80 266 122 298 _c
163 329 224 345 306 345 _c
432 345 _l
432 354 _l
432 395 418 427 391 450 _c
364 472 326 484 277 484 _c
245 484 215 480 185 472 _c
155 464 127 453 100 439 _c
100 522 _l
}_e{132 534 164 544 195 550 _c
226 556 256 560 286 560 _c
365 560 424 539 463 498 _c
502 457 522 395 522 312 _c
_cl}_e}_d
/c{{550 0 55 -13 488 560 _sc
488 526 _m
488 442 _l
462 456 437 466 411 473 _c
385 480 360 484 334 484 _c
276 484 230 465 198 428 _c
166 391 150 339 150 273 _c
150 206 166 154 198 117 _c
230 80 276 62 334 62 _c
360 62 385 65 411 72 _c
437 79 462 90 488 104 _c
488 21 _l
462 9 436 0 410 -5 _c
383 -10 354 -13 324 -13 _c
242 -13 176 12 128 64 _c
79 115 55 185 55 273 _c
55 362 79 432 128 483 _c
177 534 244 560 330 560 _c
358 560 385 557 411 551 _c
437 545 463 537 488 526 _c
_cl}_e}_d
/e{{615 0 55 -13 562 560 _sc
562 296 _m
562 252 _l
149 252 _l
153 190 171 142 205 110 _c
238 78 284 62 344 62 _c
378 62 412 66 444 74 _c
476 82 509 95 541 113 _c
541 28 _l
509 14 476 3 442 -3 _c
408 -9 373 -13 339 -13 _c
251 -13 182 12 131 62 _c
80 112 55 181 55 268 _c
55 357 79 428 127 481 _c
175 533 241 560 323 560 _c
397 560 455 536 498 489 _c
540 441 562 377 562 296 _c
472 322 _m
471 371 457 410 431 440 _c
404 469 368 484 324 484 _c
274 484 234 469 204 441 _c
174 413 156 373 152 322 _c
472 322 _l
_cl}_e}_d
/f{352 0 23 0 371 760 _sc
371 760 _m
371 685 _l
285 685 _l
253 685 230 678 218 665 _c
205 652 199 629 199 595 _c
199 547 _l
347 547 _l
347 477 _l
199 477 _l
199 0 _l
109 0 _l
109 477 _l
23 477 _l
23 547 _l
109 547 _l
109 585 _l
109 645 123 690 151 718 _c
179 746 224 760 286 760 _c
371 760 _l
_cl}_d
/g{{635 0 55 -207 544 560 _sc
454 280 _m
454 344 440 395 414 431 _c
387 467 349 485 301 485 _c
253 485 215 467 188 431 _c
161 395 148 344 148 280 _c
148 215 161 165 188 129 _c
215 93 253 75 301 75 _c
349 75 387 93 414 129 _c
440 165 454 215 454 280 _c
544 68 _m
544 -24 523 -93 482 -139 _c
440 -184 377 -207 292 -207 _c
260 -207 231 -204 203 -200 _c
175 -195 147 -188 121 -178 _c
121 -91 _l
147 -105 173 -115 199 -122 _c
225 -129 251 -133 278 -133 _c
336 -133 380 -117 410 -87 _c
439 -56 454 -10 454 52 _c
454 96 _l
435 64 411 40 382 24 _c
353 8 319 0 279 0 _c
211 0 157 25 116 76 _c
75 127 55 195 55 280 _c
55 364 75 432 116 483 _c
157 534 211 560 279 560 _c
}_e{319 560 353 552 382 536 _c
411 520 435 496 454 464 _c
454 547 _l
544 547 _l
544 68 _l
_cl}_e}_d
/i{278 0 94 0 184 760 _sc
94 547 _m
184 547 _l
184 0 _l
94 0 _l
94 547 _l
94 760 _m
184 760 _l
184 646 _l
94 646 _l
94 760 _l
_cl}_d
/l{278 0 94 0 184 760 _sc
94 760 _m
184 760 _l
184 0 _l
94 0 _l
94 760 _l
_cl}_d
/m{{974 0 91 0 889 560 _sc
520 442 _m
542 482 569 511 600 531 _c
631 550 668 560 711 560 _c
767 560 811 540 842 500 _c
873 460 889 403 889 330 _c
889 0 _l
799 0 _l
799 327 _l
799 379 789 418 771 444 _c
752 469 724 482 686 482 _c
639 482 602 466 575 435 _c
548 404 535 362 535 309 _c
535 0 _l
445 0 _l
445 327 _l
445 379 435 418 417 444 _c
398 469 369 482 331 482 _c
285 482 248 466 221 435 _c
194 404 181 362 181 309 _c
181 0 _l
91 0 _l
91 547 _l
181 547 _l
181 462 _l
201 495 226 520 255 536 _c
283 552 317 560 357 560 _c
397 560 430 550 458 530 _c
486 510 506 480 520 442 _c
}_e{_cl}_e}_d
/n{634 0 91 0 549 560 _sc
549 330 _m
549 0 _l
459 0 _l
459 327 _l
459 379 448 417 428 443 _c
408 469 378 482 338 482 _c
289 482 251 466 223 435 _c
195 404 181 362 181 309 _c
181 0 _l
91 0 _l
91 547 _l
181 547 _l
181 462 _l
202 494 227 519 257 535 _c
286 551 320 560 358 560 _c
420 560 468 540 500 501 _c
532 462 549 405 549 330 _c
_cl}_d
/o{612 0 55 -13 557 560 _sc
306 484 _m
258 484 220 465 192 427 _c
164 389 150 338 150 273 _c
150 207 163 156 191 118 _c
219 80 257 62 306 62 _c
354 62 392 80 420 118 _c
448 156 462 207 462 273 _c
462 337 448 389 420 427 _c
392 465 354 484 306 484 _c
306 560 _m
384 560 445 534 490 484 _c
534 433 557 363 557 273 _c
557 183 534 113 490 63 _c
445 12 384 -13 306 -13 _c
227 -13 165 12 121 63 _c
77 113 55 183 55 273 _c
55 363 77 433 121 484 _c
165 534 227 560 306 560 _c
_cl}_d
/p{{635 0 91 -207 580 560 _sc
181 82 _m
181 -207 _l
91 -207 _l
91 547 _l
181 547 _l
181 464 _l
199 496 223 520 252 536 _c
281 552 316 560 356 560 _c
422 560 476 533 518 481 _c
559 428 580 359 580 273 _c
580 187 559 117 518 65 _c
476 13 422 -13 356 -13 _c
316 -13 281 -5 252 10 _c
223 25 199 49 181 82 _c
487 273 _m
487 339 473 390 446 428 _c
418 466 381 485 334 485 _c
286 485 249 466 222 428 _c
194 390 181 339 181 273 _c
181 207 194 155 222 117 _c
249 79 286 61 334 61 _c
381 61 418 79 446 117 _c
473 155 487 207 487 273 _c
_cl}_e}_d
/r{411 0 91 0 411 560 _sc
411 463 _m
401 469 390 473 378 476 _c
366 478 353 480 339 480 _c
288 480 249 463 222 430 _c
194 397 181 350 181 288 _c
181 0 _l
91 0 _l
91 547 _l
181 547 _l
181 462 _l
199 495 224 520 254 536 _c
284 552 321 560 365 560 _c
371 560 378 559 386 559 _c
393 558 401 557 411 555 _c
411 463 _l
_cl}_d
/s{{521 0 54 -13 472 560 _sc
443 531 _m
443 446 _l
417 458 391 468 364 475 _c
336 481 308 485 279 485 _c
234 485 200 478 178 464 _c
156 450 145 430 145 403 _c
145 382 153 366 169 354 _c
185 342 217 330 265 320 _c
296 313 _l
360 299 405 279 432 255 _c
458 230 472 195 472 151 _c
472 100 452 60 412 31 _c
372 1 316 -13 246 -13 _c
216 -13 186 -10 154 -5 _c
122 0 89 8 54 20 _c
54 113 _l
87 95 120 82 152 74 _c
184 65 216 61 248 61 _c
290 61 323 68 346 82 _c
368 96 380 117 380 144 _c
380 168 371 187 355 200 _c
339 213 303 226 247 238 _c
216 245 _l
160 257 119 275 95 299 _c
70 323 58 356 58 399 _c
58 450 76 490 112 518 _c
148 546 200 560 268 560 _c
}_e{301 560 332 557 362 552 _c
391 547 418 540 443 531 _c
_cl}_e}_d
/t{392 0 27 0 368 702 _sc
183 702 _m
183 547 _l
368 547 _l
368 477 _l
183 477 _l
183 180 _l
183 135 189 106 201 94 _c
213 81 238 75 276 75 _c
368 75 _l
368 0 _l
276 0 _l
206 0 158 13 132 39 _c
106 65 93 112 93 180 _c
93 477 _l
27 477 _l
27 547 _l
93 547 _l
93 702 _l
183 702 _l
_cl}_d
/y{592 0 30 -207 562 547 _sc
322 -50 _m
296 -114 271 -157 247 -177 _c
223 -197 191 -207 151 -207 _c
79 -207 _l
79 -132 _l
132 -132 _l
156 -132 175 -126 189 -114 _c
203 -102 218 -75 235 -31 _c
251 9 _l
30 547 _l
125 547 _l
296 119 _l
467 547 _l
562 547 _l
322 -50 _l
_cl}_d
end readonly def

/BuildGlyph
 {exch begin
 CharStrings exch
 2 copy known not{pop /.notdef}if
 true 3 1 roll get exec
 end}_d

/BuildChar {
 1 index /Encoding get exch get
 1 index /BuildGlyph get exec
}_d

FontName currentdict end definefont pop
%!PS-Adobe-3.0 Resource-Font
%%Title: cmr10
%%Copyright: Copyright (C) 1994, Basil K. Malyshev. All Rights Reserved.012BaKoMa Fonts Collection, Level-B.
%%Creator: Converted from TrueType to type 3 by PPR
25 dict begin
/_d{bind def}bind def
/_m{moveto}_d
/_l{lineto}_d
/_cl{closepath eofill}_d
/_c{curveto}_d
/_sc{7 -1 roll{setcachedevice}{pop pop pop pop pop pop}ifelse}_d
/_e{exec}_d
/FontName /Cmr10 def
/PaintType 0 def
/FontMatrix[.001 0 0 .001 0 0]def
/FontBBox[-44 -250 1009 750]def
/FontType 3 def
/Encoding [ /equal /parenright /parenleft ] def
/FontInfo 10 dict dup begin
/FamilyName (cmr10) def
/FullName (cmr10) def
/Notice (Copyright (C) 1994, Basil K. Malyshev. All Rights Reserved.012BaKoMa Fonts Collection, Level-B. ) def
/Weight (Regular) def
/Version (1.1/12-Nov-94) def
/ItalicAngle 0.0 def
/isFixedPitch false def
/UnderlinePosition -133 def
/UnderlineThickness 20 def
end readonly def
/CharStrings 3 dict dup begin
/equal{{777 0 56 133 721 367 _sc
75 133 _m
69 133 65 135 61 139 _c
57 143 56 148 56 153 _c
56 158 57 163 61 167 _c
65 171 69 173 75 173 _c
703 173 _l
707 173 711 171 715 167 _c
719 163 721 158 721 153 _c
721 148 719 143 715 139 _c
711 135 707 133 703 133 _c
75 133 _l
75 327 _m
69 327 65 329 61 333 _c
57 337 56 341 56 347 _c
56 351 57 356 61 360 _c
65 364 69 367 75 367 _c
703 367 _l
707 367 711 364 715 360 _c
719 356 721 351 721 347 _c
721 341 719 337 715 333 _c
711 329 707 327 703 327 _c
75 327 _l
_cl}_e}_d
/parenright{{388 0 56 -249 291 750 _sc
65 -249 _m
59 -249 56 -246 56 -240 _c
56 -237 56 -235 58 -234 _c
172 -122 229 38 229 250 _c
229 462 172 623 60 733 _c
57 734 56 737 56 741 _c
56 743 57 745 59 747 _c
61 749 63 750 65 750 _c
74 750 _l
76 750 77 749 79 748 _c
127 710 167 664 199 610 _c
231 556 254 498 269 437 _c
283 376 291 314 291 250 _c
291 202 287 156 279 110 _c
271 64 258 20 241 -24 _c
223 -68 201 -108 175 -146 _c
148 -184 116 -217 79 -247 _c
77 -248 76 -249 74 -249 _c
65 -249 _l
_cl}_e}_d
/parenleft{{388 0 97 -249 332 750 _sc
310 -247 _m
272 -217 240 -184 214 -146 _c
187 -108 165 -67 148 -25 _c
131 17 118 62 110 109 _c
101 155 97 202 97 250 _c
97 298 101 345 110 392 _c
118 438 131 483 149 527 _c
166 570 188 611 215 649 _c
242 687 274 720 310 748 _c
310 749 311 750 315 750 _c
324 750 _l
326 750 327 749 329 747 _c
331 745 332 743 332 741 _c
332 738 331 736 330 735 _c
297 703 270 668 248 632 _c
226 596 209 557 196 516 _c
183 474 174 432 168 388 _c
162 344 159 298 159 250 _c
159 38 215 -122 329 -232 _c
331 -234 332 -236 332 -240 _c
332 -242 331 -244 329 -246 _c
327 -248 326 -249 324 -249 _c
315 -249 _l
311 -249 310 -248 310 -247 _c
_cl}_e}_d
end readonly def

/BuildGlyph
 {exch begin
 CharStrings exch
 2 copy known not{pop /.notdef}if
 true 3 1 roll get exec
 end}_d

/BuildChar {
 1 index /Encoding get exch get
 1 index /BuildGlyph get exec
}_d

FontName currentdict end definefont pop
end
%%EndProlog
mpldict begin
90 252 translate
432 288 0 0 clipbox
gsave
0 0 m
432 0 l
432 288 l
0 288 l
cl
1.000 setgray
fill
grestore
gsave
54 36 m
388.8 36 l
388.8 259.2 l
54 259.2 l
cl
1.000 setgray
fill
grestore
2.000 setlinewidth
1 setlinejoin
0 setlinecap
[6 6] 0 setdash
1.000 0.000 0.000 setrgbcolor
gsave
334.8 223.2 54 36 clipbox
79.2978 94.9974 m
104.774 106.834 l
130.02 144.84 l
155.429 188.882 l
181.035 218.987 l
205.766 230.268 l
230.894 234.337 l
256.848 236.707 l
281.938 237.682 l
307.956 237.855 l
332.981 238.132 l
358.092 238.263 l
382.945 238.811 l
stroke
grestore
0.500 setlinewidth
[] 0 setdash
0.000 setgray
gsave
334.8 223.2 54 36 clipbox
/o {
gsave
newpath
translate
0 -3 m
0.795609 -3 1.55874 -2.6839 2.12132 -2.12132 c
2.6839 -1.55874 3 -0.795609 3 0 c
3 0.795609 2.6839 1.55874 2.12132 2.12132 c
1.55874 2.6839 0.795609 3 0 3 c
-0.795609 3 -1.55874 2.6839 -2.12132 2.12132 c
-2.6839 1.55874 -3 0.795609 -3 0 c
-3 -0.795609 -2.6839 -1.55874 -2.12132 -2.12132 c
-1.55874 -2.6839 -0.795609 -3 0 -3 c
cl
gsave
1.000 0.000 0.000 setrgbcolor
fill
grestore
stroke
grestore
} bind def
79.2978 94.9974 o
104.774 106.834 o
130.02 144.84 o
155.429 188.882 o
181.035 218.987 o
205.766 230.268 o
230.894 234.337 o
256.848 236.707 o
281.938 237.682 o
307.956 237.855 o
332.981 238.132 o
358.092 238.263 o
382.945 238.811 o
grestore
2.000 setlinewidth
2 setlinecap
0.000 0.000 1.000 setrgbcolor
gsave
334.8 223.2 54 36 clipbox
79.3848 105.271 m
104.542 121.969 l
129.948 162.619 l
155.155 200.684 l
180.756 225.177 l
206.078 234.747 l
231.243 237.208 l
256.525 238.011 l
281.282 238.611 l
307.035 238.9 l
332.681 239.25 l
358.014 239.285 l
382.447 239.337 l
stroke
grestore
0.500 setlinewidth
0 setlinecap
0.000 setgray
gsave
334.8 223.2 54 36 clipbox
/o {
gsave
newpath
translate
0 -3 m
0.795609 -3 1.55874 -2.6839 2.12132 -2.12132 c
2.6839 -1.55874 3 -0.795609 3 0 c
3 0.795609 2.6839 1.55874 2.12132 2.12132 c
1.55874 2.6839 0.795609 3 0 3 c
-0.795609 3 -1.55874 2.6839 -2.12132 2.12132 c
-2.6839 1.55874 -3 0.795609 -3 0 c
-3 -0.795609 -2.6839 -1.55874 -2.12132 -2.12132 c
-1.55874 -2.6839 -0.795609 -3 0 -3 c
cl
gsave
0.000 0.000 1.000 setrgbcolor
fill
grestore
stroke
grestore
} bind def
79.3848 105.271 o
104.542 121.969 o
129.948 162.619 o
155.155 200.684 o
180.756 225.177 o
206.078 234.747 o
231.243 237.208 o
256.525 238.011 o
281.282 238.611 o
307.035 238.9 o
332.681 239.25 o
358.014 239.285 o
382.447 239.337 o
grestore
2.000 setlinewidth
2 setlinecap
0.750 0.000 0.750 setrgbcolor
gsave
334.8 223.2 54 36 clipbox
79.4007 119.134 m
104.792 136.907 l
129.81 182.973 l
155.294 214.948 l
180.749 231.122 l
205.967 236.916 l
231.162 237.871 l
256.788 239.175 l
282.323 239.096 l
307.694 239.359 l
332.646 239.286 l
358.049 239.333 l
382.464 239.421 l
stroke
grestore
0.500 setlinewidth
0 setlinecap
0.000 setgray
gsave
334.8 223.2 54 36 clipbox
/o {
gsave
newpath
translate
-3 -3 m
3 -3 l
3 3 l
-3 3 l
cl
gsave
0.750 0.000 0.750 setrgbcolor
fill
grestore
stroke
grestore
} bind def
79.4007 119.134 o
104.792 136.907 o
129.81 182.973 o
155.294 214.948 o
180.749 231.122 o
205.967 236.916 o
231.162 237.871 o
256.788 239.175 o
282.323 239.096 o
307.694 239.359 o
332.646 239.286 o
358.049 239.333 o
382.464 239.421 o
grestore
2.000 setlinewidth
2 setlinecap
0.000 0.500 0.000 setrgbcolor
gsave
334.8 223.2 54 36 clipbox
79.3866 121.31 m
104.758 140.321 l
130.171 185.84 l
155.458 217.187 l
180.513 234.092 l
205.532 237.561 l
231.251 238.845 l
256.35 239.069 l
282.073 239.412 l
307.328 239.365 l
333.445 239.267 l
358.555 239.448 l
383.226 239.448 l
stroke
grestore
0.500 setlinewidth
0 setlinecap
0.000 setgray
gsave
334.8 223.2 54 36 clipbox
/o {
gsave
newpath
translate
0 3 m
-3 -3 l
3 -3 l
cl
gsave
0.000 0.500 0.000 setrgbcolor
fill
grestore
stroke
grestore
} bind def
79.3866 121.31 o
104.758 140.321 o
130.171 185.84 o
155.458 217.187 o
180.513 234.092 o
205.532 237.561 o
231.251 238.845 o
256.35 239.069 o
282.073 239.412 o
307.328 239.365 o
333.445 239.267 o
358.555 239.448 o
383.226 239.448 o
grestore
2.000 setlinewidth
[6 6] 0 setdash
0.750 0.750 0.000 setrgbcolor
gsave
334.8 223.2 54 36 clipbox
79.3193 123.884 m
104.802 139.989 l
130.225 186.008 l
155.578 218.504 l
181.054 235.297 l
206.603 237.588 l
231.414 238.855 l
256.706 239.128 l
281.465 239.303 l
306.924 239.448 l
333.428 239.207 l
358.618 239.448 l
383.508 239.428 l
stroke
grestore
0.500 setlinewidth
[] 0 setdash
0.000 setgray
gsave
/o {
gsave
newpath
translate
0 0 m
0 4 l
gsave
0.000 setgray
fill
grestore
stroke
grestore
} bind def
120.96 36 o
grestore
gsave
/o {
gsave
newpath
translate
0 0 m
0 -4 l
gsave
0.000 setgray
fill
grestore
stroke
grestore
} bind def
120.96 259.2 o
grestore
/BitstreamVeraSans-Bold findfont
11.000 scalefont
setfont
gsave
111.952188 23.671875 translate
0.000000 rotate
0.000000 0.156250 m /zero glyphshow
7.653809 0.156250 m /period glyphshow
11.832520 0.156250 m /two glyphshow
grestore
gsave
/o {
gsave
newpath
translate
0 0 m
0 4 l
gsave
0.000 setgray
fill
grestore
stroke
grestore
} bind def
187.92 36 o
grestore
gsave
/o {
gsave
newpath
translate
0 0 m
0 -4 l
gsave
0.000 setgray
fill
grestore
stroke
grestore
} bind def
187.92 259.2 o
grestore
gsave
178.685625 23.671875 translate
0.000000 rotate
0.000000 0.156250 m /zero glyphshow
7.653809 0.156250 m /period glyphshow
11.832520 0.156250 m /four glyphshow
grestore
gsave
/o {
gsave
newpath
translate
0 0 m
0 4 l
gsave
0.000 setgray
fill
grestore
stroke
grestore
} bind def
254.88 36 o
grestore
gsave
/o {
gsave
newpath
translate
0 0 m
0 -4 l
gsave
0.000 setgray
fill
grestore
stroke
grestore
} bind def
254.88 259.2 o
grestore
gsave
245.692500 23.671875 translate
0.000000 rotate
0.000000 0.156250 m /zero glyphshow
7.653809 0.156250 m /period glyphshow
11.832520 0.156250 m /six glyphshow
grestore
gsave
/o {
gsave
newpath
translate
0 0 m
0 4 l
gsave
0.000 setgray
fill
grestore
stroke
grestore
} bind def
321.84 36 o
grestore
gsave
/o {
gsave
newpath
translate
0 0 m
0 -4 l
gsave
0.000 setgray
fill
grestore
stroke
grestore
} bind def
321.84 259.2 o
grestore
gsave
312.699375 23.671875 translate
0.000000 rotate
0.000000 0.156250 m /zero glyphshow
7.653809 0.156250 m /period glyphshow
11.832520 0.156250 m /eight glyphshow
grestore
gsave
/o {
gsave
newpath
translate
0 0 m
0 4 l
gsave
0.000 setgray
fill
grestore
stroke
grestore
} bind def
388.8 36 o
grestore
gsave
/o {
gsave
newpath
translate
0 0 m
0 -4 l
gsave
0.000 setgray
fill
grestore
stroke
grestore
} bind def
388.8 259.2 o
grestore
gsave
379.932813 23.671875 translate
0.000000 rotate
0.000000 0.156250 m /one glyphshow
7.653809 0.156250 m /period glyphshow
11.832520 0.156250 m /zero glyphshow
grestore
gsave
177.900000 2.671875 translate
0.000000 rotate
/BitstreamVeraSans-Roman findfont
10.0 scalefont
setfont
0.000000 8.500000 moveto
/S glyphshow

6.347656 8.500000 moveto
/y glyphshow

12.265625 8.500000 moveto
/n glyphshow

18.603516 8.500000 moveto
/e glyphshow

24.755859 8.500000 moveto
/r glyphshow

28.867188 8.500000 moveto
/g glyphshow

35.214844 8.500000 moveto
/y glyphshow

41.132812 8.500000 moveto
/space glyphshow

/Cmmi10 findfont
10.0 scalefont
setfont
44.311523 8.500000 moveto
/eta glyphshow

/Cmr10 findfont
10.0 scalefont
setfont
51.906250 8.500000 moveto
/parenleft glyphshow

/Cmmi10 findfont
10.0 scalefont
setfont
55.788086 8.500000 moveto
/eta glyphshow

/Cmr10 findfont
10.0 scalefont
setfont
62.504883 8.500000 moveto
/equal glyphshow

/Cmmi10 findfont
7.0 scalefont
setfont
74.901367 12.326563 moveto
/r glyphshow

70.901367 9.750000 10.250488 0.625000 rectfill
/Cmex10 findfont
7.0 scalefont
setfont
70.901367 8.838281 moveto
/angbracketleftbig glyphshow

/Cmmi10 findfont
7.0 scalefont
setfont
74.206543 2.301823 moveto
/k glyphshow

/Cmex10 findfont
7.0 scalefont
setfont
77.846680 8.838281 moveto
/angbracketrightbig glyphshow

/Cmr10 findfont
10.0 scalefont
setfont
82.401855 8.500000 moveto
/parenright glyphshow


grestore
gsave
/o {
gsave
newpath
translate
0 0 m
4 0 l
gsave
0.000 setgray
fill
grestore
stroke
grestore
} bind def
54 41.9257 o
grestore
gsave
/o {
gsave
newpath
translate
0 0 m
-4 0 l
gsave
0.000 setgray
fill
grestore
stroke
grestore
} bind def
388.8 41.9257 o
grestore
gsave
31.562500 37.761601 translate
0.000000 rotate
0.000000 0.156250 m /zero glyphshow
7.653809 0.156250 m /period glyphshow
11.832520 0.156250 m /zero glyphshow
grestore
gsave
/o {
gsave
newpath
translate
0 0 m
4 0 l
gsave
0.000 setgray
fill
grestore
stroke
grestore
} bind def
54 81.4301 o
grestore
gsave
/o {
gsave
newpath
translate
0 0 m
-4 0 l
gsave
0.000 setgray
fill
grestore
stroke
grestore
} bind def
388.8 81.4301 o
grestore
gsave
31.984375 77.266026 translate
0.000000 rotate
0.000000 0.156250 m /zero glyphshow
7.653809 0.156250 m /period glyphshow
11.832520 0.156250 m /two glyphshow
grestore
gsave
/o {
gsave
newpath
translate
0 0 m
4 0 l
gsave
0.000 setgray
fill
grestore
stroke
grestore
} bind def
54 120.935 o
grestore
gsave
/o {
gsave
newpath
translate
0 0 m
-4 0 l
gsave
0.000 setgray
fill
grestore
stroke
grestore
} bind def
388.8 120.935 o
grestore
gsave
31.531250 116.770451 translate
0.000000 rotate
0.000000 0.156250 m /zero glyphshow
7.653809 0.156250 m /period glyphshow
11.832520 0.156250 m /four glyphshow
grestore
gsave
/o {
gsave
newpath
translate
0 0 m
4 0 l
gsave
0.000 setgray
fill
grestore
stroke
grestore
} bind def
54 160.439 o
grestore
gsave
/o {
gsave
newpath
translate
0 0 m
-4 0 l
gsave
0.000 setgray
fill
grestore
stroke
grestore
} bind def
388.8 160.439 o
grestore
gsave
31.625000 156.274876 translate
0.000000 rotate
0.000000 0.156250 m /zero glyphshow
7.653809 0.156250 m /period glyphshow
11.832520 0.156250 m /six glyphshow
grestore
gsave
/o {
gsave
newpath
translate
0 0 m
4 0 l
gsave
0.000 setgray
fill
grestore
stroke
grestore
} bind def
54 199.943 o
grestore
gsave
/o {
gsave
newpath
translate
0 0 m
-4 0 l
gsave
0.000 setgray
fill
grestore
stroke
grestore
} bind def
388.8 199.943 o
grestore
gsave
31.718750 195.779300 translate
0.000000 rotate
0.000000 0.156250 m /zero glyphshow
7.653809 0.156250 m /period glyphshow
11.832520 0.156250 m /eight glyphshow
grestore
gsave
/o {
gsave
newpath
translate
0 0 m
4 0 l
gsave
0.000 setgray
fill
grestore
stroke
grestore
} bind def
54 239.448 o
grestore
gsave
/o {
gsave
newpath
translate
0 0 m
-4 0 l
gsave
0.000 setgray
fill
grestore
stroke
grestore
} bind def
388.8 239.448 o
grestore
gsave
32.265625 235.283725 translate
0.000000 rotate
0.000000 0.156250 m /one glyphshow
7.653809 0.156250 m /period glyphshow
11.832520 0.156250 m /zero glyphshow
grestore
/BitstreamVeraSans-Roman findfont
10.000 scalefont
setfont
gsave
26.531250 89.959375 translate
90.000000 rotate
0.000000 2.078125 m /F glyphshow
5.001953 2.078125 m /r glyphshow
9.113281 2.078125 m /a glyphshow
15.241211 2.078125 m /c glyphshow
20.739258 2.078125 m /t glyphshow
24.660156 2.078125 m /i glyphshow
27.438477 2.078125 m /o glyphshow
33.556641 2.078125 m /n glyphshow
39.894531 2.078125 m /space glyphshow
43.073242 2.078125 m /o glyphshow
49.191406 2.078125 m /f glyphshow
52.711914 2.078125 m /space glyphshow
55.890625 2.078125 m /c glyphshow
61.388672 2.078125 m /o glyphshow
67.506836 2.078125 m /o glyphshow
73.625000 2.078125 m /p glyphshow
79.972656 2.078125 m /e glyphshow
86.125000 2.078125 m /r glyphshow
90.236328 2.078125 m /a glyphshow
96.364258 2.078125 m /t glyphshow
100.285156 2.078125 m /o glyphshow
106.403320 2.078125 m /r glyphshow
110.514648 2.078125 m /s glyphshow
grestore
1.000 setlinewidth
2 setlinecap
gsave
54 259.2 m
388.8 259.2 l
stroke
grestore
gsave
388.8 36 m
388.8 259.2 l
stroke
grestore
gsave
54 36 m
388.8 36 l
stroke
grestore
gsave
54 36 m
54 259.2 l
stroke
grestore
gsave
234.288 42 m
382.8 42 l
382.8 133.725 l
234.288 133.725 l
234.288 42 l
cl
gsave
1.000 setgray
fill
grestore
stroke
grestore
2.000 setlinewidth
0 setlinecap
[6 6] 0 setdash
1.000 0.000 0.000 setrgbcolor
gsave
239.088 124 m
263.088 124 l
stroke
grestore
0.500 setlinewidth
[] 0 setdash
0.000 setgray
gsave
/o {
gsave
newpath
translate
0 -3 m
0.795609 -3 1.55874 -2.6839 2.12132 -2.12132 c
2.6839 -1.55874 3 -0.795609 3 0 c
3 0.795609 2.6839 1.55874 2.12132 2.12132 c
1.55874 2.6839 0.795609 3 0 3 c
-0.795609 3 -1.55874 2.6839 -2.12132 2.12132 c
-2.6839 1.55874 -3 0.795609 -3 0 c
-3 -0.795609 -2.6839 -1.55874 -2.12132 -2.12132 c
-1.55874 -2.6839 -0.795609 -3 0 -3 c
cl
gsave
1.000 0.000 0.000 setrgbcolor
fill
grestore
stroke
grestore
} bind def
251.088 124 o
grestore
/BitstreamVeraSans-Roman findfont
12.000 scalefont
setfont
gsave
272.687500 119.628125 translate
0.000000 rotate
0.000000 0.171875 m /S glyphshow
7.617188 0.171875 m /t glyphshow
12.322266 0.171875 m /a glyphshow
19.675781 0.171875 m /t glyphshow
24.380859 0.171875 m /i glyphshow
27.714844 0.171875 m /c glyphshow
grestore
2.000 setlinewidth
2 setlinecap
0.000 0.000 1.000 setrgbcolor
gsave
239.088 106.375 m
263.088 106.375 l
stroke
grestore
0.500 setlinewidth
0 setlinecap
0.000 setgray
gsave
/o {
gsave
newpath
translate
0 -3 m
0.795609 -3 1.55874 -2.6839 2.12132 -2.12132 c
2.6839 -1.55874 3 -0.795609 3 0 c
3 0.795609 2.6839 1.55874 2.12132 2.12132 c
1.55874 2.6839 0.795609 3 0 3 c
-0.795609 3 -1.55874 2.6839 -2.12132 2.12132 c
-2.6839 1.55874 -3 0.795609 -3 0 c
-3 -0.795609 -2.6839 -1.55874 -2.12132 -2.12132 c
-1.55874 -2.6839 -0.795609 -3 0 -3 c
cl
gsave
0.000 0.000 1.000 setrgbcolor
fill
grestore
stroke
grestore
} bind def
251.088 106.375 o
grestore
gsave
272.687500 99.675000 translate
0.000000 rotate
0.000000 2.500000 m /V glyphshow
7.333984 2.500000 m /e glyphshow
14.716797 2.500000 m /l glyphshow
18.050781 2.500000 m /o glyphshow
25.392578 2.500000 m /c glyphshow
31.990234 2.500000 m /i glyphshow
35.324219 2.500000 m /t glyphshow
40.029297 2.500000 m /y glyphshow
47.130859 2.500000 m /space glyphshow
50.945312 2.500000 m /equal glyphshow
61.000000 2.500000 m /space glyphshow
64.814453 2.500000 m /one glyphshow
72.449219 2.500000 m /space glyphshow
76.263672 2.500000 m /m glyphshow
87.953125 2.500000 m /slash glyphshow
91.996094 2.500000 m /s glyphshow
grestore
2.000 setlinewidth
2 setlinecap
0.750 0.000 0.750 setrgbcolor
gsave
239.088 88.75 m
263.088 88.75 l
stroke
grestore
0.500 setlinewidth
0 setlinecap
0.000 setgray
gsave
/o {
gsave
newpath
translate
-3 -3 m
3 -3 l
3 3 l
-3 3 l
cl
gsave
0.750 0.000 0.750 setrgbcolor
fill
grestore
stroke
grestore
} bind def
251.088 88.75 o
grestore
gsave
272.687500 82.050000 translate
0.000000 rotate
0.000000 2.500000 m /V glyphshow
7.333984 2.500000 m /e glyphshow
14.716797 2.500000 m /l glyphshow
18.050781 2.500000 m /o glyphshow
25.392578 2.500000 m /c glyphshow
31.990234 2.500000 m /i glyphshow
35.324219 2.500000 m /t glyphshow
40.029297 2.500000 m /y glyphshow
47.130859 2.500000 m /space glyphshow
50.945312 2.500000 m /equal glyphshow
61.000000 2.500000 m /space glyphshow
64.814453 2.500000 m /five glyphshow
72.449219 2.500000 m /space glyphshow
76.263672 2.500000 m /m glyphshow
87.953125 2.500000 m /slash glyphshow
91.996094 2.500000 m /s glyphshow
grestore
2.000 setlinewidth
2 setlinecap
0.000 0.500 0.000 setrgbcolor
gsave
239.088 71.125 m
263.088 71.125 l
stroke
grestore
0.500 setlinewidth
0 setlinecap
0.000 setgray
gsave
/o {
gsave
newpath
translate
0 3 m
-3 -3 l
3 -3 l
cl
gsave
0.000 0.500 0.000 setrgbcolor
fill
grestore
stroke
grestore
} bind def
251.088 71.125 o
grestore
gsave
272.687500 64.425000 translate
0.000000 rotate
0.000000 2.500000 m /V glyphshow
7.333984 2.500000 m /e glyphshow
14.716797 2.500000 m /l glyphshow
18.050781 2.500000 m /o glyphshow
25.392578 2.500000 m /c glyphshow
31.990234 2.500000 m /i glyphshow
35.324219 2.500000 m /t glyphshow
40.029297 2.500000 m /y glyphshow
47.130859 2.500000 m /space glyphshow
50.945312 2.500000 m /equal glyphshow
61.000000 2.500000 m /space glyphshow
64.814453 2.500000 m /one glyphshow
72.449219 2.500000 m /zero glyphshow
80.083984 2.500000 m /space glyphshow
83.898438 2.500000 m /m glyphshow
95.587891 2.500000 m /slash glyphshow
99.630859 2.500000 m /s glyphshow
grestore
2.000 setlinewidth
[6 6] 0 setdash
0.750 0.750 0.000 setrgbcolor
gsave
239.088 53.5 m
263.088 53.5 l
stroke
grestore
0.000 setgray
gsave
272.687500 46.800000 translate
0.000000 rotate
0.000000 2.500000 m /V glyphshow
7.333984 2.500000 m /e glyphshow
14.716797 2.500000 m /l glyphshow
18.050781 2.500000 m /o glyphshow
25.392578 2.500000 m /c glyphshow
31.990234 2.500000 m /i glyphshow
35.324219 2.500000 m /t glyphshow
40.029297 2.500000 m /y glyphshow
47.130859 2.500000 m /space glyphshow
50.945312 2.500000 m /equal glyphshow
61.000000 2.500000 m /space glyphshow
64.814453 2.500000 m /one glyphshow
72.449219 2.500000 m /five glyphshow
80.083984 2.500000 m /space glyphshow
83.898438 2.500000 m /m glyphshow
95.587891 2.500000 m /slash glyphshow
99.630859 2.500000 m /s glyphshow
grestore

end
showpage
